{
  "_id": "7RFIHKYT9T56X0FG",
  "_key": "!tables!7RFIHKYT9T56X0FG",
  "name": "Voice Generator",
  "description": "Table of NPC Voices",
  "permission": {
    "default": 0
  },
  "replacement": true,
  "displayRoll": true,
  "formula": "1d100",
  "flags": {},
  "results": [
    {
      "_id": "2UM8HuHjs6O9w1MP",
      "drawn": false,
      "_key": "!tables.results!7RFIHKYT9T56X0FG.2UM8HuHjs6O9w1MP",
      "documentCollection": "",
      "documentId": null,
      "flags": {},
      "range": [
        1,
        25
      ],
      "text": "Aquamarine",
      "img": "icons/svg/d20-black.svg",
      "type": 0,
      
      "weight": 25
    },
    {
      "_id": "xCgeXJYLB8Jpl8w2",
      "_key": "!tables.results!7RFIHKYT9T56X0FG.xCgeXJYLB8Jpl8w2",
      "drawn": false,
      "flags": {},
      "range": [
        26,
        50
      ],
      "text": "Opal",
      "type": 0,
      "img": "icons/svg/d20-black.svg",
      "documentCollection": "",
      "documentId": null,
      "weight": 25
    },
    {
      "_id": "bj8aVzblQljrE4yv",
      "_key": "!tables.results!7RFIHKYT9T56X0FG.bj8aVzblQljrE4yv",
      "drawn": false,
      "flags": {},
      "range": [
        51,
        75
      ],
      "text": "Pearl, black",
      "type": 0,
      "img": "icons/svg/d20-black.svg",
      "documentCollection": "",
      "documentId": null,
      "weight": 25
    },
    {
      "_id": "Hk9MSmsvgrLvJjqr",
      "_key": "!tables.results!7RFIHKYT9T56X0FG.Hk9MSmsvgrLvJjqr",
      "flags": {},
      "drawn": false,
      "range": [
        76,
        100
      ],
      "text": "Topaz",
      "type": 0,
      "img": "icons/svg/d20-black.svg",
      "documentCollection": "",
      "documentId": null,
      "weight": 25
    }
  ]
}
